[
    {
        "id": "308aa9a.10c5656",
        "type": "tab",
        "label": "Flow 3"
    },
    {
        "id": "8dee5436.4fadb8",
        "type": "mqtt in",
        "z": "308aa9a.10c5656",
        "name": "",
        "topic": "scf_prac6/test",
        "qos": "2",
        "broker": "e7c71d2d.0aa2b",
        "x": 322,
        "y": 247,
        "wires": [
            [
                "b6ee79a1.7433b8",
                "61170a02.841074"
            ]
        ]
    },
    {
        "id": "b6ee79a1.7433b8",
        "type": "debug",
        "z": "308aa9a.10c5656",
        "name": "",
        "active": true,
        "console": "false",
        "complete": "false",
        "x": 1187.9999618530273,
        "y": 84.00000286102295,
        "wires": []
    },
    {
        "id": "3caba8ba.071b28",
        "type": "switch",
        "z": "308aa9a.10c5656",
        "name": "",
        "property": "payload.Transcript",
        "propertyType": "msg",
        "rules": [
            {
                "t": "eq",
                "v": "eco",
                "vt": "str"
            },
            {
                "t": "eq",
                "v": "verde",
                "vt": "str"
            },
            {
                "t": "eq",
                "v": "sonido",
                "vt": "str"
            },
            {
                "t": "eq",
                "v": "rojo",
                "vt": "str"
            }
        ],
        "checkall": "false",
        "outputs": 4,
        "x": 603,
        "y": 403,
        "wires": [
            [
                "5e3fe395.0eeb0c"
            ],
            [
                "fa413fc.06cffc"
            ],
            [
                "3a0318e7.844568"
            ],
            [
                "c4be242d.61bb18"
            ]
        ]
    },
    {
        "id": "d26ff9eb.302078",
        "type": "tcp out",
        "z": "308aa9a.10c5656",
        "host": "",
        "port": "",
        "beserver": "reply",
        "base64": false,
        "end": false,
        "name": "",
        "x": 1316.0000114440918,
        "y": 284.00000953674316,
        "wires": []
    },
    {
        "id": "fa413fc.06cffc",
        "type": "change",
        "z": "308aa9a.10c5656",
        "name": "green",
        "rules": [
            {
                "t": "change",
                "p": "payload.Transcript",
                "pt": "msg",
                "from": "verde",
                "fromt": "str",
                "to": "g",
                "tot": "str"
            }
        ],
        "action": "",
        "property": "",
        "from": "",
        "to": "",
        "reg": false,
        "x": 874,
        "y": 399,
        "wires": [
            [
                "75990259.41497c"
            ]
        ]
    },
    {
        "id": "5e3fe395.0eeb0c",
        "type": "change",
        "z": "308aa9a.10c5656",
        "name": "echo",
        "rules": [
            {
                "t": "change",
                "p": "payload.Transcript",
                "pt": "msg",
                "from": "eco",
                "fromt": "str",
                "to": "e",
                "tot": "str"
            }
        ],
        "action": "",
        "property": "",
        "from": "",
        "to": "",
        "reg": false,
        "x": 877,
        "y": 328,
        "wires": [
            [
                "75990259.41497c"
            ]
        ]
    },
    {
        "id": "3a0318e7.844568",
        "type": "change",
        "z": "308aa9a.10c5656",
        "name": "sonido",
        "rules": [
            {
                "t": "change",
                "p": "payload.Transcript",
                "pt": "msg",
                "from": "sonido",
                "fromt": "str",
                "to": "z",
                "tot": "str"
            }
        ],
        "action": "",
        "property": "",
        "from": "",
        "to": "",
        "reg": false,
        "x": 888,
        "y": 462,
        "wires": [
            [
                "75990259.41497c"
            ]
        ]
    },
    {
        "id": "3f2c60d0.21ea1",
        "type": "tcp in",
        "z": "308aa9a.10c5656",
        "name": "",
        "server": "server",
        "host": "",
        "port": "5002",
        "datamode": "stream",
        "datatype": "buffer",
        "newline": "",
        "topic": "",
        "base64": false,
        "x": 317,
        "y": 125,
        "wires": [
            [
                "b6ee79a1.7433b8"
            ]
        ]
    },
    {
        "id": "61170a02.841074",
        "type": "json",
        "z": "308aa9a.10c5656",
        "name": "",
        "x": 430,
        "y": 378,
        "wires": [
            [
                "3caba8ba.071b28"
            ]
        ]
    },
    {
        "id": "c4be242d.61bb18",
        "type": "change",
        "z": "308aa9a.10c5656",
        "name": "rojo",
        "rules": [
            {
                "t": "change",
                "p": "payload.Transcript",
                "pt": "msg",
                "from": "rojo",
                "fromt": "str",
                "to": "r",
                "tot": "str"
            }
        ],
        "action": "",
        "property": "",
        "from": "",
        "to": "",
        "reg": false,
        "x": 884,
        "y": 544,
        "wires": [
            [
                "75990259.41497c"
            ]
        ]
    },
    {
        "id": "75990259.41497c",
        "type": "function",
        "z": "308aa9a.10c5656",
        "name": "",
        "func": "return {payload: msg.payload.Transcript};",
        "outputs": 1,
        "noerr": 0,
        "x": 1139,
        "y": 425,
        "wires": [
            [
                "b6ee79a1.7433b8",
                "d26ff9eb.302078"
            ]
        ]
    },
    {
        "id": "e7c71d2d.0aa2b",
        "type": "mqtt-broker",
        "z": "",
        "broker": "84.88.41.252",
        "port": "1883",
        "clientid": "",
        "usetls": false,
        "compatmode": true,
        "keepalive": "60",
        "cleansession": true,
        "willTopic": "",
        "willQos": "0",
        "willPayload": "",
        "birthTopic": "",
        "birthQos": "0",
        "birthPayload": ""
    }
]
